{
    "packages": {
        "approvedRepos": [
            "microsoft/pxt-neopixel",
            "microsoft/pxt-microturtle",
            "microsoft/pxt-sonar",
            "microsoft/pxt-bluetooth-temperature-sensor",
            "microsoft/pxt-bluetooth-midi",
            "microsoft/pxt-max6675",
            "microsoft/pxt-midi",
            "microsoft/pxt-radio-blockchain",
            "microsoft/pxt-bluetooth-max6675",
            "microsoft/pxt-ws2812b",
            "microsoft/pxt-apa102",
            "microsoft/pxt-radio-firefly",
            "KitronikLtd/pxt-kitronik-servo-lite",
            "KitronikLtd/pxt-kitronik-motor-driver",
            "KitronikLtd/pxt-kitronik-I2C-16-servo",
            "KitronikLtd/pxt-kitronik-stopbit",
            "KitronikLtd/pxt-kitronik-lampbit",
            "KitronikLtd/pxt-kitronik-klimate",
            "KitronikLtd/pxt-kitronik-zip-64",
            "KitronikLtd/pxt-kitronik-rtc",
            "KitronikLtd/pxt-kitronik-game-controller",
            "KitronikLtd/pxt-kitronik-robotics-board",
            "KitronikLtd/pxt-kitronik-klef-piano",
            "adafruit/pxt-crickit",
            "adafruit/pxt-seesaw",
            "Seeed-Studio/pxt-grove",
            "Seeed-Studio/pxt-grove-zero-for-microbit",
            "Tinkertanker/pxt-ir-receiver",
            "Tinkertanker/pxt-iot-environment-kit",
            "Tinkertanker/pxt-motorbit",
            "Tinkertanker/pxt-realtimeclock-ds1307",
            "Tinkertanker/pxt-tinkercademy-tinker-kit",
            "Tinkertanker/pxt-rotary-encoder-ky040",
            "Tinkertanker/pxt-tinkercademy-microbot",
            "Tinkertanker/pxt-oled-ssd1306",
            "Tinkertanker/pxt-range-vl53l0x",
            "Tinkertanker/pxt-continuous-servo",
            "Tinkertanker/pxt-joystickbit",
            "Tinkertanker/pxt-robit",
            "Tinkertanker/pxt-smarthome",
            "Tinkertanker/microDriver_SHT2x",
            "Tinkertanker/pxt-ringbitcar",
            "Tinkertanker/uDriver_PCA9585",
            "Tinkertanker/pxt-alphanumeric-ht16k33",
            "Tinkertanker/pxt-stepper-motor",
            "CoderDojoOlney/pxt-olney",
            "PaulDFoster/pxt-microbit-GY521",
            "chevyng/pxt-ucl-junkrobot",
            "sparkfun/pxt-gamer-bit",
            "sparkfun/pxt-moto-bit",
            "sparkfun/pxt-weather-bit",
            "sparkfun/pxt-gator-environment",
            "minodekit/pxt-minode",
            "LaboratoryForPlayfulComputation/pxt-BlockyTalkyBLE",
            "mbitfun/pxt-katakana",
            "jdarling/pxt-pca9685",
            "MUSELAB/pxt-wifi-shield",
            "kittenbot/pxt-robotbit",
            "pizayanz/pxt-linebeacon",
            "sunfounder/pxt-sloth",
            "4tronix/BitBot",
            "pimoroni/pxt-scrollbit",
            "emwta/pxt-iBit",
            "vengit/pxt-sbrick",
            "pimoroni/pxt-envirobit",
            "Annikken/pxt-Andee",
            "1010Technologies/pxt-makerbit",
            "1010Technologies/pxt-makerbit-motor",
            "1010Technologies/pxt-makerbit-mp3",
            "1010Technologies/pxt-makerbit-ultrasonic",
            "1010Technologies/pxt-makerbit-lcd1602",
            "1010Technologies/pxt-makerbit-ir-receiver",
            "1010Technologies/pxt-makerbit-touch",
            "1010Technologies/pxt-makerbit-pins",
            "pimoroni/pxt-automationbit",
            "k8robotics/pxt-k8",
            "dexterind/pxt-giggle",
            "dexterind/pxt-gigglebot",
            "Imagimaker/pxt-imagimaker",
            "sparkfun/pxt-gator-light",
            "sparkfun/pxt-gator-temp",
            "4tronix/Robobit",
            "alsrobot-microbit-makecode-packages/ALSRobotJoyBit",
            "alsrobot-microbit-makecode-packages/ALSRobotKeyboard",
            "alsrobot-microbit-makecode-packages/ALSRobotElectromagnet",
            "alsrobot-microbit-makecode-packages/CooCoo",
            "alsrobot-microbit-makecode-packages/CruiseBit",
            "makecode-extensions/i2cLCD1602",
            "makecode-extensions/OLED12864_I2C",
            "makecode-extensions/DS1307",
            "makecode-extensions/ScrollText",
            "makecode-extensions/WhaleySansFont",
            "makecode-extensions/BMP280",
            "makecode-extensions/TM1637",
            "makecode-extensions/BMP180",
            "makecode-extensions/BH1750",
            "makecode-extensions/APDS9930",
            "makecode-extensions/AT24XX",
            "makecode-extensions/BME280",
            "makecode-extensions/TM1650",
            "makecode-extensions/NTC",
            "makecode-extensions/DS1302",
            "BirdBrainTechnologies/pxt-hummingbird-bit",
            "PiSupply/pxt-iot-lora-node",
            "PiSupply/pxt-tinker-kit",
            "PiSupply/pxt-bitbuggy",
            "PiSupply/pxt-oled-ssd1306",
            "pimoroni/pxt-touchbit",
            "4tronix/cubebit",
            "4tronix/BitCommander",
            "alankrantas/pxt-MAX7219_8x8",
            "ReRoKit/pxt-reromicro",
            "51bit/ColorBit",
            "51bit/SFC",
            "51bit/SmartTools",
            "alankrantas/pxt-MAX7219_8x8",
            "KitronikLtd/pxt-kitronik-zip-tile",
            "lwchkg/pxt-proportional-font",
            "jcubuntu/pxt-iKB1",
            "KitronikLtd/pxt-kitronik-accessbit",
            "kaku111/pxt-tobbieII",
            "alankrantas/pxt-DHT11_DHT22",
            "Freenove/Makecode-Extension-Rover",
            "letstalkscience/pxt-cozir",
            "e-radionicacom/pxt-wifi",
            "monkmakes/pxt-sensor",
            "beyond-coding-tw/pxt-nexusbot",
            "elecfreaks/pxt-cutebot",
            "KitronikLtd/pxt-kitronik-fischertechnik",
            "keigan-motor/pxt-KeiganMotor",
            "KitronikLtd/pxt-kitronik-klip-motor",
            "alankrantas/pxt-ESP8266_ThingSpeak",
            "KitronikLtd/pxt-kitronik-viewtext32",
            "plenprojectcompany/pxt-PLENbit",
            "4tronix/MiniBit",
            "elecfreaks/pxt-wukong",
            "sparkfun/pxt-gator-particle",
            "sparkfun/pxt-gator-soil",
            "sparkfun/pxt-gator-microphone",
            "rebeccaclavier/pxt-bmp280",
            "xinabox/pxt-SW01",
            "xinabox/pxt-OD01",
            "51bit/dfplayermini",
            "makecode-extensions/STTS751",
            "makecode-extensions/LSM6DSO",
            "makecode-extensions/LPS22",
            "makecode-extensions/LIS2DW12",
            "makecode-extensions/LIS2MDL",
            "makecode-extensions/HTS221",
            "assirati/pxt-inventura",
            "Veilkrand/pxt-RobotCar",
            "4tronix/DriveBit",
            "Freenove/Makecode-Extension-Starter-Kit",
            "sphero-inc/sphero-sdk-microbit-makecode",
            "BrightWearables/pxt-microbit-brightboard",
            "EBOTICS/pxt-eboticsMIBO",
            "KitronikLtd/pxt-kitronik-halohd",
            "dugbraden/pxt-climate-action-kit",
            "alsrobot-microbit-makecode-packages/MiniCruise",
            "4tronix/ServoBit",
            "DFRobot/pxt-maqueen",
            "DFRobot/pxt-DFRobot-microIoT",
            "mu-opensource/pxt-muvision",
            "KitronikLtd/pxt-kitronik-clip-detector",
            "DFRobot/pxt-DFRobot-NaturalScience",
            "strawbees/pxt-robotic-inventions",
            "daferdur/pxt-myHX711",
            "CytronTechnologies/pxt-edubit",
            "MakeAndLearn/pxt-microshield",
            "4tronix/Orbit",
            "elecfreaks/pxt-TPBot",
            "longan-link/pxt-longanbit",
            "CODOmicrobit/pxt-CODO",
            "KitronikLtd/pxt-kitronik-move-motor",
            "elecfreaks/pxt-PlanetX",
            "elecfreaks/pxt-nezha",
            "philipphenkel/pxt-powerfunctions",
            "1010Technologies/pxt-makerbit-ir-transmitter",
            "DFRobot/pxt-DFRobot_HuskyLens",
            "bsiever/microbit-pxt-timeanddate",
            "DFRobot/pxt-DFRobot-Maqueenplus",
            "joy-it/Joy-Car",
            "AlexandreFrolov/DS3231",
            "elecfreaks/pxt-magicwand",
            "YFROBOT-TM/pxt-yfrobot-valon",
            "KitronikLtd/pxt-kitronik-smart-greenhouse",
            "hardwario/pxt-microbit-hardwario",
            "Schoumi/ssd1306-with-reset",
            "keble6/pxt-DS3231",
            "microsoft/ExpressivePixelsMakeCode",
            "pimoroni/pxt-inkybit",
            "MUSELAB/pxt-muselab-oled-v2",
            "microsoft/pxt-jacdac",
            "CoolGuy-official/pxt-coolguy",
            "Bouw-je-BEP/Bouw-je-BEP",
            "BirdBrainTechnologies/pxt-finch",
            "iBuilds/pxt-PTKidsBIT",
            "Wappsto/pxt-wappsto",
            "KS-Bulme/pxt-mikRobot",
            "CytronTechnologies/pxt-rekabit",
            "bsiever/microbit-dstemp",
            "bsiever/microbit-dstemp-2wire",
            "microsoft/pxt-data-streamer",
            "iBuilds/pxt-PTKidsBIT-Robot",
            "4tronix/EggBit",
            "joy-it/SEN-MPU6050",
            "gomakekit/Hoverbit_V2",
            "Matrix-Robotics/pxt-MatrixMicro",
            "elecfreaks/pxt-PlanetX-AI",
            "joy-it/pxt-SEN-Color",
            "stemhub/pxt-Stemhubbit",
            "KitronikLtd/pxt-kitronik-lab-bit",
            "KitronikLtd/pxt-kitronik-128x64Display",
            "monkmakes/monkmakes-7-segment",
            "stemhub/pxt-StemhubCity",
            "KittenBot/pxt-powerbrick"
        ],
        "preferredRepos": [
            "Microsoft/pxt-neopixel",
            "4tronix/BitBot",
            "dfrobot/pxt-maqueen",
            "kittenbot/pxt-robotbit",
            "Microsoft/pxt-sonar",
            "Microsoft/pxt-microturtle",
            "Tinkertanker/pxt-tinkercademy-tinker-kit",
            "seeed-studio/pxt-grove",
            "elecfreaks/pxt-cutebot",
            "dfrobot/pxt-dfrobot-maqueenplus",
            "tinkertanker/pxt-iot-environment-kit",
            "tinkertanker/pxt-ringbitcar",
            "kitronikltd/pxt-kitronik-servo-lite",
            "kitronikltd/pxt-kitronik-motor-driver",
            "tinkertanker/pxt-smarthome"
        ],
        "upgrades": {
            "tinkertanker/pxt-iot-environment-kit": "min:v4.2.1",
            "microsoft/pxt-bluetooth-midi": "dv:mbcodal",
            "laboratoryforplayfulcomputation/pxt-blockytalkyble": "dv:mbcodal",
            "microsoft/pxt-bluetooth-temperature-sensor": "dv:mbcodal",
            "minodekit/pxt-minode": "dv:mbcodal",
            "sparkfun/pxt-gamer-bit": "dv:mbcodal",
            "microsoft/pxt-bluetooth-max6675": "dv:mbcodal",
            "pimoroni/pxt-scrollbit": "min:v0.0.7",
            "pauldfoster/pxt-microbit-gy521": "dv:mbcodal",
            "pizayanz/pxt-linebeacon": "min:v0.0.14",
            "sparkfun/pxt-gator-environment": "dv:mbcodal",
            "muselab/pxt-wifi-shield": "min:v1.8.82",
            "tinkertanker/pxt-alphanumeric-ht16k33": "dv:mbcodal",
            "tinkertanker/microdriver_sht2x": "dv:mbcodal",
            "alsrobot-microbit-makecode-packages/cruisebit": "dv:mbcodal",
            "tinkertanker/udriver_pca9585": "dv:mbcodal",
            "dfrobot/pxt-dfrobot-naturalscience": "dv:mbcodal",
            "kitronikltd/pxt-kitronik-zip-tile": "min:v0.1.0",
            "4tronix/bitcommander": "min:1.1.1",
            "tinkertanker/pxt-rotary-encoder-ky040": "dv:mbcodal",
            "KitronikLtd/pxt-kitronik-zip-64": "min:v0.1.0",
            "KitronikLtd/pxt-kitronik-game-controller": "min:v0.0.2",
            "Tinkertanker/pxt-tinkercademy-microbot": "dv:mbcodal",
            "Tinkertanker/pxt-range-vl53l0x": "dv:mbcodal",
            "Imagimaker/pxt-imagimaker": "dv:mbcodal",
            "PiSupply/pxt-oled-ssd1306": "dv:mbcodal",
            "sparkfun/pxt-gator-particle": "dv:mbcodal",
            "sparkfun/pxt-gator-microphone": "dv:mbcodal",
            "rebeccaclavier/pxt-bmp280": "dv:mbcodal",
            "mu-opensource/pxt-muvision": "min:v1.2.21",
            "elecfreaks/pxt-PlanetX": "min:v0.13.1",
            "bsiever/microbit-pxt-timeanddate": "min:v2.0.11"
        },
        "approvedEditorExtensionUrls": [
            "https://microsoft.github.io/jacdac-docs/tools/makecode-editor-extension"
        ]
    },
    "galleries": {
        "Tutorials": "tutorials",
        "Tutorials for the new micro:bit (V2)": "v2tutorials",
        "Live Coding": {
            "url": "live-coding",
            "shuffle": "daily",
            "youTube": true
        },
        "Games": "projects/games",
        "Radio Games": "projects/radio-games",
        "Fashion": "projects/fashion",
        "Music": "projects/music",
        "Toys": "projects/toys",
        "Science": "projects/science",
        "Tools": "projects/tools",
        "Turtle": "projects/turtle",
        "Blocks to JavaScript": "courses/blocks-to-javascript",
        "Courses": "courses",
        "Behind the MakeCode Hardware": {
            "url": "behind-the-makecode-hardware",
            "youTube": true
        },
        "Science Experiments": {
            "url": "science-experiments",
            "youTube": true
        },
        "Coding for Teachers": {
            "url": "coding-for-teachers",
            "youTube": true
        },
        "Coding Cards": "coding-cards",
        "Deep Dive": {
            "url": "deep-dive",
            "youTube": true
        }
    },
    "electronManifest": {
        "latest": "v4.0.11"
    }
}
